# desired x desired y motive x motive y motive theta amcl x amcl y amcl theta time
0 0 0 0 0 0 0 0 3.981590271e-05
1.09464567949 0.205565252442 0.0935058072209 0.106720127165 -0.050202351842 0 0 0 0.200214862823
1.11455393343 0.203657202712 0.0935866683722 0.106662414968 -0.0524044782175 0 0 0 0.400449037552
1.13451611028 0.202146373366 0.0935824736953 0.106658868492 -0.05226546734 0 0 0 0.600538015366
1.15448573944 0.201036310927 0.0989981293678 0.106300711632 -0.0581607212664 0 0 0 0.800436973572
1.17447927148 0.200325706835 0.131377711892 0.104416243732 -0.0484411266425 0 0 0 1.00040793419
1.19446673436 0.200015308631 0.167280852795 0.102749682963 -0.0381164341381 0 0 0 1.20044589043
1.2144599127 0.200104550003 0.201941937208 0.101560689509 -0.0354193952167 0 0 0 1.40052580833
1.2344610833 0.200593959525 0.237107411027 0.0999874845147 -0.0297896358081 0 0 0 1.60052204132
1.25444967374 0.201483483848 0.272061049938 0.0988801494241 -0.0299058054754 0 0 0 1.8004488945
1.27440419778 0.202771833855 0.306822538376 0.0975473597646 -0.0287214461426 0 0 0 2.00034689903
1.29432177996 0.204458237026 0.341931581497 0.0964065641165 -0.0263428711105 0 0 0 2.20045399666
1.31422862997 0.206545511814 0.376462131739 0.0953406170011 -0.0285793495079 0 0 0 2.40048503876
1.33405928443 0.209026686405 0.41182205081 0.0941887870431 -0.0292842644728 0 0 0 2.60034894943
1.35384536974 0.211905064172 0.446802228689 0.0921964645386 -0.0245273569175 0 0 0 2.80039787292
1.37357558683 0.215179450024 0.481810033321 0.0909181907773 -0.0270161130708 0 0 0 3.00036382675
1.39324362482 0.21884919535 0.516592204571 0.0896990075707 -0.0216886082933 0 0 0 3.20034503937
1.41282776156 0.222910268241 0.551818490028 0.089040979743 -0.0218993257382 0 0 0 3.40047883987
1.43234475567 0.227366505556 0.584898531437 0.0885119587183 -0.0208739482723 0 0 0 3.60050296783
1.45173822124 0.232204635284 0.617239534855 0.0873910561204 -0.0113129027135 0 0 0 3.80050396919
1.47107522247 0.23744183357 0.656813979149 0.0863958820701 -0.00371547341738 0 0 0 4.0003619194
1.49024342396 0.243047151188 0.679486870766 0.0861712023616 -0.000641009881596 0 0 0 4.20045495033
1.50930470727 0.249037015409 0.729132533073 0.0857889577746 0.00908534063497 0 0 0 4.40041899681
1.52826093474 0.255412916285 0.764792561531 0.0863166153431 0.0145374301816 0 0 0 4.60051393509
1.54709028812 0.262168281677 0.800432264805 0.086594723165 0.0249979468149 0 0 0 4.80046486855
1.56577830221 0.269297988811 0.836311995983 0.0873252749443 0.0334458967675 0 0 0 5.0004799366
1.58433362436 0.276805727276 0.871948063374 0.0884423851967 0.039405385668 0 0 0 5.20042085648
1.60269975648 0.284667871138 0.907511532307 0.0894918516278 0.0471345664372 0 0 0 5.40052580833
1.62093160953 0.292907623174 0.943067491055 0.0912922024727 0.0532019357649 0 0 0 5.60053300858
1.6389841268 0.301505182866 0.978376865387 0.0933860465884 0.057056711392 0 0 0 5.80048894882
1.65686715634 0.310465064507 1.01361775398 0.095414608717 0.0699414448506 0 0 0 6.00045990944
1.67455888108 0.319776239591 1.04944205284 0.0973296687007 0.0775990288849 0 0 0 6.20057082176
1.69207728243 0.329448480494 1.08416998386 0.0999264791608 0.0839151795534 0 0 0 6.40048694611
1.70938306088 0.339460112899 1.12039852142 0.103200539947 0.0935270225479 0 0 0 6.60048604012
1.72647484906 0.349809295916 1.15574622154 0.106652937829 0.0965908367783 0 0 0 6.80053496361
1.74339137636 0.36052051121 1.19166278839 0.110566698015 0.103351333278 0 0 0 7.00042295456
1.76008028163 0.371561663048 1.22776031494 0.114686660469 0.104116980415 0 0 0 7.20042991638
1.77651925994 0.382916440677 1.2625002861 0.118185020983 0.10190881571 0 0 0 7.40046286583
1.79274156922 0.394607280815 1.29546439648 0.122225828469 0.116108092921 0 0 0 7.60044884682
1.80872941196 0.406622093192 1.32686972618 0.12629596889 0.14919059489 0 0 0 7.80058097839
1.82449869849 0.418974151782 1.36052930355 0.132313609123 0.189562685661 0 0 0 8.00047302246
1.8399693015 0.431599522947 1.39304721355 0.138869777322 0.220698748103 0 0 0 8.20046687126
1.8552144964 0.44455710758 1.42547392845 0.146981611848 0.245216082784 0 0 0 8.40045785904
1.87019071038 0.457811067372 1.45779395103 0.155315577984 0.275230892018 0 0 0 8.6006128788
1.88491746653 0.471379341467 1.48990905285 0.165158599615 0.307924339261 0 0 0 8.80058193207
1.89934419577 0.485214930315 1.52135396004 0.176146432757 0.340581051964 0 0 0 9.00038385391
1.91348906026 0.499333630827 1.55315768719 0.188286244869 0.37309635682 0 0 0 9.20049881935
1.92735985989 0.513743754691 1.58404541016 0.201034545898 0.409417329121 0 0 0 9.40045690536
1.94093995085 0.528428716193 1.61468136311 0.215185984969 0.439657360177 0 0 0 9.60038590431
1.95422485296 0.543383771767 1.64394915104 0.229619503021 0.46951251686 0 0 0 9.80041098595
1.96720771312 0.558601274609 1.67454695702 0.246054306626 0.505562449093 0 0 0 10.0004589558
1.97987714585 0.574067385911 1.70414924622 0.263058751822 0.539702287337 0 0 0 10.2004599571
1.9922486273 0.58980157937 1.73302602768 0.280813872814 0.574546238185 0 0 0 10.4003868103
2.00428318223 0.605753786061 1.76209962368 0.299887955189 0.605392109532 0 0 0 10.6004178524
2.01600911174 0.621960961909 1.78961789608 0.319786071777 0.640049006639 0 0 0 10.800467968
2.02741058768 0.638402529032 1.81704008579 0.340964078903 0.677582550502 0 0 0 11.0004069805
2.03846399736 0.655043006171 1.84271037579 0.362746834755 0.7066959656 0 0 0 11.2004568577
2.04919409643 0.671919147685 1.86740767956 0.384848773479 0.745511248466 0 0 0 11.4003989697
2.05958935741 0.689014543623 1.89229571819 0.40835750103 0.781870635944 0 0 0 11.6004519463
2.0696322851 0.706300001309 1.91598665714 0.432492345572 0.817793926433 0 0 0 11.8004748821
2.07933856599 0.723802891276 1.93825697899 0.457370698452 0.857061262359 0 0 0 12.0004909039
2.08868142215 0.741474831747 1.95837903023 0.481150269508 0.891736460883 0 0 0 12.2004458904
2.09767371198 0.759339238389 1.9773182869 0.50765889883 0.926935608566 0 0 0 12.400441885
2.10630461634 0.777374938744 1.99698138237 0.534087836742 0.961280163274 0 0 0 12.6004459858
2.11457913861 0.795593027722 2.01572871208 0.56212580204 0.994250827585 0 0 0 12.8004069328
2.12248390459 0.813964450127 2.03305244446 0.589794099331 1.02973589214 0 0 0 13.0004730225
2.13002229319 0.832496892304 2.04997897148 0.618429839611 1.06553818792 0 0 0 13.2004480362
2.13718248379 0.851160506709 2.0651705265 0.646942615509 1.09765410641 0 0 0 13.4004678726
2.14397804427 0.869991739584 2.08036851883 0.67629045248 1.14039528615 0 0 0 13.6004838943
2.1503841609 0.888921317503 2.09399628639 0.705451667309 1.18534985734 0 0 0 13.8004460335
2.15641513233 0.907989564144 2.10616159439 0.735662698746 1.22911878768 0 0 0 14.0004220009
2.16206703269 0.927186832036 2.11699199677 0.765798270702 1.26463495133 0 0 0 14.2004289627
2.16733067763 0.946482031961 2.12621545792 0.794730067253 1.29027011996 0 0 0 14.4004218578
2.17220267422 0.965859101741 2.13447189331 0.822484076023 1.3027925384 0 0 0 14.6003828049
2.17669089539 0.985349365555 2.14151382446 0.84892052412 1.31502195058 0 0 0 14.8003818989
2.18078955618 1.00493117501 2.1485490799 0.874475777149 1.33107957324 0 0 0 15.0004329681
2.18449327573 1.02457768089 2.15491390228 0.898784339428 1.34401946712 0 0 0 15.2004599571
2.1878068686 1.04431573507 2.16053843498 0.922453284264 1.35849513781 0 0 0 15.400482893
2.19072178773 1.06409437353 2.16587162018 0.945476830006 1.37104104418 0 0 0 15.6004729271
2.1932410118 1.08392979507 2.17056894302 0.968442320824 1.39036973633 0 0 0 15.8004379272
2.19536447534 1.10382536081 2.17524838448 0.991003572941 1.39877102015 0 0 0 16.0004189014
2.19708775951 1.12373729721 2.17846441269 1.01215934753 1.42783725325 0 0 0 16.2005169392
2.19841385564 1.14369926404 2.18213248253 1.03374779224 1.44272585305 0 0 0 16.4005098343
2.19934001802 1.16367468684 2.18509984016 1.05567598343 1.46544167642 0 0 0 16.6005408764
2.19986661771 1.18366761507 2.18768548965 1.07647097111 1.48070982286 0 0 0 16.8005568981
2.19999322957 1.20367978379 2.18958258629 1.09728038311 1.49604044381 0 0 0 17.0005068779
2.19972002594 1.22366156668 2.1909763813 1.11689853668 1.51163614427 0 0 0 17.2004508972
2.19904686675 1.24365040708 2.19249844551 1.13904714584 1.53526101875 0 0 0 17.4005420208
2.1979737831 1.26362647434 2.19342017174 1.15898609161 1.55090301952 0 0 0 17.600440979
2.19650226001 1.28356581711 2.1945374012 1.17952275276 1.57154386076 0 0 0 17.8004288673
2.19463098609 1.30348527196 2.19404840469 1.20086050034 1.57820178427 0 0 0 18.0003979206
2.192362472 1.32335608684 2.19284105301 1.21863174438 1.59070991768 0 0 0 18.200455904
2.18969706524 1.3431772295 2.19260907173 1.23086118698 1.61475281635 0 0 0 18.4004750252
2.18663408413 1.36295147756 2.19253492355 1.25514984131 1.64651081072 0 0 0 18.6004359722
2.18317738461 1.38265330654 2.19074201584 1.27657032013 1.66152470872 0 0 0 18.8004150391
2.17933023732 1.40226785775 2.18857097626 1.2969430685 1.68693015257 0 0 0 19.0004718304
2.17509046858 1.42180752488 2.18565869331 1.31805849075 1.69394336313 0 0 0 19.2005019188
2.17045929045 1.44126492819 2.18306016922 1.33589398861 1.71796395906 0 0 0 19.4004600048
2.16544171202 1.46061907202 2.17985081673 1.35428404808 1.73734640803 0 0 0 19.6005189419
2.16003220405 1.4798895625 2.17690730095 1.3727401495 1.75833356052 0 0 0 19.800590992
2.15424424604 1.49902829112 2.17270255089 1.39313256741 1.77658790816 0 0 0 20.000551939
2.14807101309 1.51805872751 2.16857028008 1.41184520721 1.80382394708 0 0 0 20.200551033
2.14152270971 1.53694953198 2.16331171989 1.43141543865 1.8167672142 0 0 0 20.4005138874
2.13459512205 1.55571330849 2.15830230713 1.44926726818 1.82968443915 0 0 0 20.6004469395
2.12729082777 1.57434171653 2.15288424492 1.46583664417 1.85398798966 0 0 0 20.8004598618
2.11962300019 1.59280216078 2.1465036869 1.48909258842 1.87674800884 0 0 0 21.0004549026
2.11158434441 1.61111310247 2.14087176323 1.50723958015 1.88494415479 0 0 0 21.2004818916
2.10318139227 1.62925909735 2.13375401497 1.52511954308 1.90747187587 0 0 0 21.4004700184
2.09441584104 1.64723629469 2.12687706947 1.54395353794 1.92054458898 0 0 0 21.6004350185
2.08529344183 1.66503281804 2.11936569214 1.56335067749 1.94379422418 0 0 0 21.8003828526
2.07581572903 1.6826456348 2.11209607124 1.5817117691 1.97023499339 0 0 0 22.0004429817
2.06599365329 1.70005498944 2.10419940948 1.60064661503 1.98080076807 0 0 0 22.2004020214
2.05580802479 1.71729355757 2.09585118294 1.61854481697 2.00482489328 0 0 0 22.4004738331
2.04529777401 1.73429549246 2.08751058578 1.63688278198 2.02454617144 0 0 0 22.600468874
2.03444324407 1.75109388713 2.07868027687 1.65419995785 2.04522410584 0 0 0 22.8004589081
2.02325391601 1.76767331254 2.06914448738 1.6717004776 2.06722173577 0 0 0 23.0004258156
2.01174310289 1.78401467011 2.05955481529 1.68889474869 2.0853106075 0 0 0 23.2004139423
1.99989284307 1.80014284934 2.04963684082 1.70643508434 2.09924662303 0 0 0 23.4004979134
1.98773476088 1.81601456679 2.02856683731 1.70580780506 1.24365070251 0 0 0 23.6005449295
1.97526065266 1.83164144927 2.03464531898 1.73267662525 2.37259905912 0 0 0 23.8004870415
1.96247211946 1.84702107156 2.02238440514 1.7442741394 2.42441566691 0 0 0 24.000497818
1.94937484281 1.86214601484 2.00759649277 1.75722956657 2.3214499398 0 0 0 24.2004818916
1.93598740318 1.87699523068 1.99231266975 1.77281045914 2.22249186148 0 0 0 24.4003648758
1.92228052841 1.89160020119 1.97900164127 1.79029393196 2.19186094099 0 0 0 24.6004719734
1.90832286521 1.90588860214 1.96636116505 1.80736863613 2.19630720979 0 0 0 24.8005728722
1.89406414791 1.91991316044 1.95400643349 1.82432639599 2.21975113814 0 0 0 25.0004069805
1.87952210321 1.9336550356 1.9401781559 1.84149336815 2.26627420724 0 0 0 25.2004678249
1.86472408763 1.94708894205 1.9274045229 1.8578864336 2.27064130053 0 0 0 25.400384903
1.8496567591 1.96022766021 1.91329324245 1.87435209751 2.2983918274 0 0 0 25.6004300117
1.83432065312 1.97307005441 1.900395751 1.88907206059 2.31047279549 0 0 0 25.8003678322
1.81873090927 1.98560299255 1.88550198078 1.9051296711 2.33705302779 0 0 0 26.0004808903
1.80289655046 1.99781937144 1.87032103539 1.9196959734 2.36627178051 0 0 0 26.2004628181
1.78681985611 2.00971751647 1.85590338707 1.93420183659 2.37604296536 0 0 0 26.4003009796
1.77051258935 2.02128885624 1.84143602848 1.94794034958 2.39853577253 0 0 0 26.6004879475
1.75396880257 2.03253742605 1.82614958286 1.96221911907 2.4292757282 0 0 0 26.8005459309
1.73721647406 2.04344440244 1.81103539467 1.97514843941 2.45761426211 0 0 0 27.0004839897
1.72024529835 2.05401687896 1.79593300819 1.98719763756 2.48327623121 0 0 0 27.2004289627
1.70305772259 2.06425281471 1.77974355221 1.99975907803 2.50948651982 0 0 0 27.4002759457
1.68567172653 2.07414127808 1.76360714436 2.01152634621 2.53340670997 0 0 0 27.6004400253
1.66809240443 2.08367952387 1.74618244171 2.02360463142 2.55408151678 0 0 0 27.8004918098
1.65032119968 2.09286662897 1.73065233231 2.03279614449 2.57638871613 0 0 0 28.0004208088
1.63237877568 2.10169207291 1.71414422989 2.04399371147 2.58415603832 0 0 0 28.2004590034
1.61424902627 2.11016358103 1.69834423065 2.05176115036 2.61161794697 0 0 0 28.4003589153
1.59598266019 2.11825798817 1.68117082119 2.05810070038 2.64380986541 0 0 0 28.600342989
1.57751963461 2.12600157963 1.66373062134 2.06639885902 2.65152148532 0 0 0 28.8004658222
1.55892907033 2.13336483889 1.6481013298 2.07435727119 2.65016734036 0 0 0 29.0004458427
1.5401974404 2.1403540299 1.63011109829 2.08380937576 2.66488995682 0 0 0 29.2004230022
1.52132167533 2.14697010563 1.61173331738 2.09385347366 2.69026806896 0 0 0 29.4003248215
1.50233185938 2.15320273122 1.59434068203 2.10231113434 2.71376688202 0 0 0 29.6003878117
1.48320764638 2.15905861606 1.57553005219 2.11125874519 2.72993918575 0 0 0 29.8003790379
1.46396965978 2.1645309838 1.55769836903 2.12054538727 2.76564543493 0 0 0 30.000440836
1.4446236687 2.16961810045 1.54103183746 2.12526392937 2.75938470362 0 0 0 30.2003138065
1.42517772498 2.17431770597 1.52155852318 2.13375306129 2.80776054915 0 0 0 30.4004619122
1.40565829405 2.17862386344 1.50278437138 2.14132738113 2.82207461435 0 0 0 30.6002678871
1.38602605139 2.18254481231 1.48358106613 2.14803886414 2.84482483245 0 0 0 30.8003189564
1.36636243703 2.18606467311 1.4648706913 2.15384817123 2.86002487553 0 0 0 31.0003910065
1.34660255502 2.18919547657 1.44553756714 2.15986776352 2.87635173953 0 0 0 31.2004628181
1.32677914649 2.19193096938 1.42651855946 2.16569161415 2.90165365441 0 0 0 31.4004468918
1.30692196583 2.19426741535 1.40732872486 2.16974782944 2.93395477993 0 0 0 31.600425005
1.2870073867 2.19620766643 1.38854265213 2.1737101078 2.96256123594 0 0 0 31.8004639149
1.2670545958 2.19774930778 1.36712014675 2.18049788475 2.96849197634 0 0 0 32.0002849102
1.24710900621 2.19888975444 1.34735643864 2.18396615982 3.0081455848 0 0 0 32.2004170418
1.22712652482 2.19963200812 1.32720577717 2.18580269814 3.02662671305 0 0 0 32.4005899429
1.20713107501 2.19997457356 1.30916011333 2.18674898148 3.03967203589 0 0 0 32.6004338264
1.18712290352 2.19991708676 1.28855240345 2.18874502182 3.06545817125 0 0 0 32.8004820347
1.16713375558 2.19945975906 1.2687267065 2.18914198875 3.07779338473 0 0 0 33.0004599094
1.14713179545 2.19860149857 1.24787354469 2.19011735916 3.10477889734 0 0 0 33.2004618645
1.12719073586 2.19734588336 1.23067569733 2.18946957588 3.11557062794 0 0 0 33.4004459381
1.10723689133 2.19568820706 1.20877087116 2.19015431404 3.14117177072 0 0 0 33.6004469395
1.08737292263 2.19363732893 1.18991434574 2.18914604187 -3.13323626059 0 0 0 33.8004159927
1.06751827831 2.19118544855 1.17071831226 2.18790626526 -3.11714087087 0 0 0 34.0004270077
1.04772525642 2.18833820247 1.14987540245 2.18776130676 -3.09323726681 0 0 0 34.2004828453
1.02799115185 2.1850954046 1.13019287586 2.18649077415 -3.07718979954 0 0 0 34.4004440308
1.00831435304 2.18145637333 1.11149597168 2.18408989906 -3.06310160787 0 0 0 34.6004219055
0.988734536383 2.17742872061 1.09262156487 2.18202018738 -3.04593709037 0 0 0 34.8003838062
0.969229141054 2.17300812466 1.07277023792 2.17968034744 -3.02695386114 0 0 0 35.0004069805
0.949817970501 2.16819881848 1.05353987217 2.17633104324 -2.99703883118 0 0 0 35.2004888058
0.930477878386 2.1629941983 1.03258562088 2.17239403725 -2.97927501807 0 0 0 35.4004788399
0.911295477988 2.15741824662 1.0134729147 2.16916751862 -2.95927258901 0 0 0 35.6004519463
0.892200815884 2.15145134519 0.994420170784 2.16514182091 -2.94413920929 0 0 0 35.8005218506
0.873240852502 2.14510764441 0.975469827652 2.16148757935 -2.92764804588 0 0 0 36.0004270077
0.854408302868 2.13838498436 0.95471650362 2.15743350983 -2.9052980872 0 0 0 36.2004029751
0.83571367477 2.13128699833 0.934792637825 2.15241885185 -2.88781194956 0 0 0 36.4004290104
0.817158436776 2.12381401671 0.915719747543 2.14668679237 -2.86427370041 0 0 0 36.6004188061
0.798759294407 2.11597265034 0.896491825581 2.14080858231 -2.85308410609 0 0 0 36.8004648685
0.780521130668 2.10776510077 0.877081632614 2.13468670845 -2.82882102581 0 0 0 37.0004339218
0.762438986483 2.09918872293 0.859286546707 2.1284058094 -2.80124258169 0 0 0 37.2002229691
0.744561893975 2.09026744947 0.84078925848 2.12138462067 -2.77757722783 0 0 0 37.4004049301
0.726836041847 2.08097438595 0.822017133236 2.11404037476 -2.7541738579 0 0 0 37.6004078388
0.709303130476 2.07133035196 0.804173588753 2.1063849926 -2.73522420157 0 0 0 37.8004448414
0.691992780028 2.06135281067 0.784938752651 2.09777951241 -2.71578570892 0 0 0 38.0002570152
0.674853756146 2.05101199907 0.76717543602 2.0891122818 -2.69696504326 0 0 0 38.2003469467
0.657919998091 2.04032688374 0.75021225214 2.08089518547 -2.68461476235 0 0 0 38.4003088474
0.641253775399 2.02933868624 0.732539057732 2.07159042358 -2.6637720338 0 0 0 38.600466013
0.624774524857 2.01799489775 0.714247763157 2.06234073639 -2.63248924564 0 0 0 38.8003928661
0.608529870636 2.00632691017 0.697782874107 2.05268764496 -2.61565822096 0 0 0 39.0004448891
0.592522144593 1.99433661328 0.681214988232 2.04191255569 -2.59386056825 0 0 0 39.2005488873
0.576767188545 1.9820363564 0.664682269096 2.03154349327 -2.57333493419 0 0 0 39.4004769325
0.561252307948 1.96941626308 0.647149324417 2.02028203011 -2.55561943983 0 0 0 39.6004920006
0.545996375488 1.95649141378 0.631241083145 2.00943994522 -2.53813710688 0 0 0 39.8004100323
0.530984827869 1.94324874669 0.614521920681 1.99781894684 -2.515512676 0 0 0 40.000387907
0.516263181423 1.92972869131 0.598294436932 1.98628568649 -2.49575102905 0 0 0 40.2005019188
0.5018059615 1.9159085728 0.582905232906 1.97424268723 -2.47474764383 0 0 0 40.4004259109
0.487633227753 1.90180736801 0.567872703075 1.96211743355 -2.4557970916 0 0 0 40.6005148888
0.473734991024 1.88741482144 0.55328130722 1.94964408875 -2.43365232369 0 0 0 40.800552845
0.460133064598 1.872753237 0.538475930691 1.9371856451 -2.41411970383 0 0 0 41.0005550385
0.446826721009 1.8578221734 0.524224340916 1.92406857014 -2.39480561442 0 0 0 41.2004098892
0.433820371618 1.84262646775 0.509793281555 1.91082847118 -2.37214335547 0 0 0 41.40041399
0.421124887617 1.82717904884 0.496834486723 1.89782178402 -2.36000325912 0 0 0 41.6003119946
0.408729352127 1.81146607577 0.482253551483 1.88320994377 -2.33820540371 0 0 0 41.8004348278
0.396664444685 1.79552664556 0.468932002783 1.86975562572 -2.31588293586 0 0 0 42.0003948212
0.384920585978 1.779349246 0.454859793186 1.85466873646 -2.29158687327 0 0 0 42.2003798485
0.373489113801 1.76292073598 0.441612690687 1.83968913555 -2.26391442994 0 0 0 42.4004428387
0.362402917265 1.74628850161 0.428997844458 1.82378304005 -2.24539997058 0 0 0 42.6004099846
0.351641473941 1.72942214844 0.416202396154 1.80823802948 -2.2205359654 0 0 0 42.8004119396
0.341222936277 1.71234944601 0.404298812151 1.79300141335 -2.19876466848 0 0 0 43.0004279613
0.331151989682 1.69507891792 0.392225444317 1.77640867233 -2.17902303354 0 0 0 43.2004079819
0.321423307098 1.6776012926 0.381078988314 1.75968158245 -2.16484184768 0 0 0 43.4003398418
0.312048875418 1.65993782227 0.369852691889 1.7427021265 -2.14492898778 0 0 0 43.6003890038
0.303028177386 1.6420877169 0.359616369009 1.72634768486 -2.1300863334 0 0 0 43.8004050255
0.294364113911 1.62405617768 0.348327666521 1.70892190933 -2.10812961861 0 0 0 44.0002229214
0.286063262202 1.60585667335 0.338855922222 1.69206237793 -2.0979599142 0 0 0 44.2004368305
0.278129523183 1.58749815996 0.328840196133 1.67505884171 -2.0647771901 0 0 0 44.4005179405
0.270560976742 1.56897574723 0.319043397903 1.65711295605 -2.04147033128 0 0 0 44.6004509926
0.263376177753 1.55033671746 0.309590667486 1.63950955868 -2.01592743624 0 0 0 44.8004629612
0.256553710036 1.53152541072 0.300839304924 1.62148058414 -1.99777807153 0 0 0 45.0004940033
0.250114330137 1.51259752748 0.292308539152 1.60436165333 -1.98010242139 0 0 0 45.2006280422
0.244051240116 1.49353359003 0.284236431122 1.58638060093 -1.95780390756 0 0 0 45.4004309177
0.238372279122 1.47435766153 0.276553153992 1.56763720512 -1.93952062415 0 0 0 45.6004369259
0.233077250127 1.45506939404 0.26932990551 1.54909443855 -1.91901723958 0 0 0 45.8004949093
0.228171652789 1.43568976125 0.261991918087 1.53029596806 -1.89231472149 0 0 0 46.0004448891
0.223652163982 1.41620569628 0.25590261817 1.51226902008 -1.87080096324 0 0 0 46.2004048824
0.219522048686 1.39662905937 0.249389529228 1.49276435375 -1.84825166491 0 0 0 46.4004218578
0.215785995098 1.37698246398 0.243731841445 1.47385001183 -1.82931660919 0 0 0 46.60044384
0.212440099221 1.35724325859 0.238224878907 1.45400571823 -1.80891957405 0 0 0 46.800401926
0.20949707507 1.33749165686 0.233108401299 1.43544018269 -1.78887802704 0 0 0 47.0004229546
0.206944870704 1.31764994764 0.228519573808 1.41718363762 -1.76960708101 0 0 0 47.2004299164
0.204790380816 1.29776407256 0.223839998245 1.39701855183 -1.75282922102 0 0 0 47.4004909992
0.203034981048 1.27785082521 0.220170676708 1.37696170807 -1.73157045841 0 0 0 47.6003439426
0.201677245993 1.2578936856 0.216737046838 1.35814678669 -1.71030902117 0 0 0 47.8004410267
0.20071895532 1.23791297592 0.213770329952 1.33810532093 -1.68830706828 0 0 0 48.0005118847
0.20016058684 1.21792059967 0.211057886481 1.31830155849 -1.66768600742 0 0 0 48.2004418373
0.200002180133 1.19791187596 0.209024086595 1.29740583897 -1.64647838642 0 0 0 48.4005529881
0.200244153519 1.17790367841 0.207360804081 1.27795338631 -1.62947532223 0 0 0 48.6005198956
0.200884825616 1.1579420838 0.205993950367 1.25889575481 -1.61113387701 0 0 0 48.8005108833
0.201926626072 1.13795533661 0.204607874155 1.2378371954 -1.58866370642 0 0 0 49.0005090237
0.203366044217 1.11801976957 0.203996628523 1.21877348423 -1.5666526238 0 0 0 49.2003679276
0.205204063351 1.09811258946 0.203070908785 1.1987593174 -1.54443088455 0 0 0 49.4003808498
0.207443053072 1.07821860937 0.203699842095 1.1798684597 -1.5279094115 0 0 0 49.6004199982
0.210081271628 1.0583634538 0.204312548041 1.16012394428 -1.51067184508 0 0 0 49.8003709316
0.213104915782 1.03863676767 0.205508232117 1.13935101032 -1.488326716 0 0 0 50.0003228188
0.216531419436 1.01892114689 0.206751003861 1.11985719204 -1.4657523405 0 0 0 50.2003679276
0.220349361831 0.999289693502 0.208263814449 1.10119247437 -1.44288148616 0 0 0 50.4003629684
0.224556714868 0.979749239521 0.210355624557 1.08210086823 -1.4253404672 0 0 0 50.6004989147
0.229157617048 0.960281274271 0.213119760156 1.06140577793 -1.40296995161 0 0 0 50.8004670143
0.234147391831 0.940907855594 0.215801179409 1.04173088074 -1.37969115664 0 0 0 51.0005028248
0.239518351583 0.92165668132 0.21944591403 1.02175951004 -1.36417559184 0 0 0 51.2004718781
0.245279491648 0.902495796781 0.223035797477 1.00312030315 -1.34434259436 0 0 0 51.4004249573
0.251418729683 0.883466315213 0.227236926556 0.983644247055 -1.3235211431 0 0 0 51.6004998684
0.257940300387 0.864554740136 0.231831595302 0.963255643845 -1.30376570184 0 0 0 51.800413847
0.264843254822 0.845765809177 0.236662939191 0.94446092844 -1.28581147119 0 0 0 52.0005209446
0.272112741948 0.827139119316 0.242320150137 0.924529790878 -1.26843206835 0 0 0 52.2004978657
0.279750687674 0.808667400843 0.247914880514 0.906043291092 -1.2464067898 0 0 0 52.4002850056
0.287766186669 0.790330047702 0.254051208496 0.887091875076 -1.2270839963 0 0 0 52.6003978252
0.296146276417 0.772158386356 0.260468930006 0.868583500385 -1.20573148177 0 0 0 52.8005168438
0.304872420789 0.754189931769 0.267310738564 0.850006461143 -1.18675950912 0 0 0 53.0005078316
0.313966629475 0.736378531218 0.274345725775 0.831736385822 -1.16709398624 0 0 0 53.2004518509
0.323410400264 0.718761313239 0.281646579504 0.813407301903 -1.14636081175 0 0 0 53.4004688263
0.333228941654 0.701293741353 0.289470970631 0.794918239117 -1.12286193573 0 0 0 53.6005518436
0.343363575053 0.684079429123 0.297361522913 0.777010500431 -1.10353655205 0 0 0 53.8005049229
0.35385619325 0.667045350618 0.306350976229 0.758775949478 -1.08612606443 0 0 0 54.0004680157
0.364678951632 0.650237554798 0.315620929003 0.741170346737 -1.06838949973 0 0 0 54.2004349232
0.375839165073 0.633644177065 0.324754148722 0.723950922489 -1.04938190979 0 0 0 54.4005458355
0.387333731928 0.617270614489 0.334576308727 0.706012547016 -1.02616942155 0 0 0 54.6004548073
0.39914576142 0.601140677163 0.343853741884 0.69013684988 -1.00746269516 0 0 0 54.8003690243
0.41128483885 0.585241189919 0.354668557644 0.672576487064 -0.986260769365 0 0 0 55.0004618168
0.423733915124 0.569594602283 0.36571097374 0.656488120556 -0.971016696795 0 0 0 55.2004640102
0.436490675169 0.554203196898 0.376482844353 0.639709293842 -0.947979331008 0 0 0 55.4003529549
0.449565257592 0.539055450596 0.387858688831 0.622948825359 -0.926801553055 0 0 0 55.6005308628
0.462926182349 0.524187757337 0.399088174105 0.607232391834 -0.907286740938 0 0 0 55.8004100323
0.476600050439 0.509570776274 0.411187648773 0.591665029526 -0.888991558833 0 0 0 56.0004110336
0.490537808257 0.495256501635 0.423547387123 0.575602471828 -0.867789943037 0 0 0 56.2005228996
0.504786637053 0.48119656374 0.435507506132 0.560575544834 -0.851528818683 0 0 0 56.40041399
0.519301435153 0.467436375585 0.448594033718 0.544242322445 -0.830718943572 0 0 0 56.6004188061
0.534080114657 0.453976738764 0.462128698826 0.529159545898 -0.80313639303 0 0 0 56.8005158901
0.54913647898 0.440805244351 0.475804686546 0.514258623123 -0.781649484196 0 0 0 57.0003569126
0.564451853226 0.427938763353 0.489247083664 0.500742256641 -0.760337713855 0 0 0 57.2004668713
0.580040577131 0.415366127423 0.50319892168 0.486941635609 -0.744195786707 0 0 0 57.4005079269
0.595840563925 0.403136538796 0.517536282539 0.473436623812 -0.72614311442 0 0 0 57.6005530357
0.611886514748 0.391221582592 0.531460225582 0.459718823433 -0.703529698069 0 0 0 57.8004510403
0.628182069884 0.379619445137 0.546759605408 0.44668340683 -0.684017162557 0 0 0 58.0002348423
0.644701126715 0.368349134956 0.561929106712 0.433201819658 -0.662533807988 0 0 0 58.2004430294
0.661442146638 0.357411465434 0.577385604382 0.421065926552 -0.641649974906 0 0 0 58.4004368782
0.678405367611 0.346806563865 0.593358278275 0.408754855394 -0.624104464087 0 0 0 58.6004860401
0.695571121392 0.336546754927 0.609364569187 0.396680295467 -0.599657405423 0 0 0 58.8004620075
0.712940712887 0.326631091212 0.624202549458 0.386213690042 -0.582245087435 0 0 0 59.0005168915
0.730506886564 0.317063866162 0.642536878586 0.374498903751 -0.564559142252 0 0 0 59.2005238533
0.748281070058 0.307839695833 0.659459233284 0.363529711962 -0.544706702305 0 0 0 59.4004089832
0.766192981044 0.298994189639 0.676421999931 0.352438598871 -0.523617490975 0 0 0 59.6002588272
0.784290830803 0.290502398769 0.693473279476 0.342079550028 -0.503655340139 0 0 0 59.8005158901
0.802569955253 0.282367524805 0.710950553417 0.331926018 -0.487073826385 0 0 0 60.0005638599
0.820997736074 0.2746042555 0.728015005589 0.323018908501 -0.470335954521 0 0 0 60.2003819942
0.839585512497 0.267207741671 0.745588302612 0.313819140196 -0.449817934781 0 0 0 60.4003369808
0.85830590261 0.260188772248 0.763903796673 0.304965436459 -0.430407586801 0 0 0 60.6004219055
0.877164092848 0.253545047531 0.782412648201 0.296149879694 -0.407049176076 0 0 0 60.8004369736
0.896178601002 0.247270994715 0.800386726856 0.288461387157 -0.388839349467 0 0 0 61.0004498959
0.915271399578 0.241391829733 0.818494856358 0.28082087636 -0.365185565637 0 0 0 61.200412035
0.934503853511 0.235888079008 0.836813092232 0.274066895247 -0.350654401878 0 0 0 61.4004588127
0.953837723689 0.2307713718 0.855181157589 0.266900748014 -0.330787465423 0 0 0 61.6005048752
0.973263412476 0.226043881955 0.874673426151 0.259866923094 -0.312383948724 0 0 0 61.8004939556
0.992790691819 0.221703366763 0.893111407757 0.253509700298 -0.29376886168 0 0 0 62.0004248619
1.01239959892 0.217754567577 0.912243723869 0.247609093785 -0.273448664922 0 0 0 62.200428009
1.03208584519 0.214198378671 0.931917488575 0.242229431868 -0.254485147547 0 0 0 62.400454998
1.05182346853 0.211039072804 0.950592577457 0.23739720881 -0.236059439812 0 0 0 62.600466013
1.071628714 0.208273821596 0.97019547224 0.232743024826 -0.215313392149 0 0 0 62.8005809784
1.09150150598 0.205903386589 0.990134179592 0.228624284267 -0.19231958725 0 0 0 63.0004348755
1.11139723832 0.203932958771 1.0088031292 0.2249417454 -0.174615887581 0 0 0 63.2004258633
1.13133916206 0.202359939992 1.02864778042 0.221635058522 -0.15658343304 0 0 0 63.4004328251
1.15130837025 0.201186140869 1.04783082008 0.218289613724 -0.138086377362 0 0 0 63.600497961
1.1712914379 0.200412175713 1.0683259964 0.215524986386 -0.118987376216 0 0 0 63.8004028797
